{
    "data": {
        "source": "data",
        "format": "BS",
        "paths": [
            "/cvmfs/atlas-nightlies.cern.ch/repo/data/data-art/TrigP1Test/data18_13TeV.00360026.physics_EnhancedBias.merge.RAW._lb0151._SFO-1._0001.1",
	        "/cvmfs/atlas-nightlies.cern.ch/repo/data/data-art/TrigP1Test/data18_13TeV.00360026.physics_EnhancedBias.merge.RAW._lb0151._SFO-1._0002.1"
        ]
    },
    "data_Main": {
        "source": "data",
        "format": "BS",
        "paths": [
            "/cvmfs/atlas-nightlies.cern.ch/repo/data/data-art/TrigP1Test/data18_13TeV.00360026.physics_Main.daq.RAW._lb0100._SFO-1._0001.data"
        ]
    },
    "data_run1": {
        "source": "data",
        "format": "BS",
        "paths": [
            "/cvmfs/atlas-nightlies.cern.ch/repo/data/data-art/TrigAnalysisTest/data12_8TeV.00209109.physics_JetTauEtmiss.merge.RAW._lb0186._SFO-1._0001.1"
        ]
    },
    "data_run3": {
        "source": "data",
        "format": "BS",
        "paths": [
            "/cvmfs/atlas-nightlies.cern.ch/repo/data/data-art/TrigP1Test/data21_900GeV.00405514.physics_L1Calo.merge.RAW._lb0365._SFO-ALL._0001.1"
        ]
    },
    "data_dbg_stream": {
        "source": "data",
        "format": "BS",
        "paths": [
            "/cvmfs/atlas-nightlies.cern.ch/repo/data/data-art/TrigP1Test/data21_calib.00394829.debug_PUCrash.daq.RAW._lb0000._SFO-16._0001.data"
        ]
    },
    "data_cos": {
        "source": "data",
        "format": "BS",
        "paths": [
            "/cvmfs/atlas-nightlies.cern.ch/repo/data/data-art/TrigP1Test/data22_cos.00415453.express_express.merge.RAW/data22_cos.00415453.express_express.merge.RAW._lb0200._SFO-11._0001.1",
            "/cvmfs/atlas-nightlies.cern.ch/repo/data/data-art/TrigP1Test/data22_cos.00415453.express_express.merge.RAW/data22_cos.00415453.express_express.merge.RAW._lb0200._SFO-12._0001.1",
            "/cvmfs/atlas-nightlies.cern.ch/repo/data/data-art/TrigP1Test/data22_cos.00415453.express_express.merge.RAW/data22_cos.00415453.express_express.merge.RAW._lb0200._SFO-13._0001.1"
	    ]
    },
    "data_cos_run2": {
        "source": "data",
        "format": "BS",
        "paths": [
            "/cvmfs/atlas-nightlies.cern.ch/repo/data/data-art/TrigP1Test/data16_cos.00306147.physics_Main.daq.RAW._lb0652._SFO-1._0001.data",
            "/cvmfs/atlas-nightlies.cern.ch/repo/data/data-art/TrigP1Test/data16_cos.00306147.physics_Main.daq.RAW._lb0652._SFO-2._0001.data",
            "/cvmfs/atlas-nightlies.cern.ch/repo/data/data-art/TrigP1Test/data16_cos.00306147.physics_Main.daq.RAW._lb0652._SFO-3._0001.data",
            "/cvmfs/atlas-nightlies.cern.ch/repo/data/data-art/TrigP1Test/data16_cos.00306147.physics_Main.daq.RAW._lb0652._SFO-4._0001.data",
            "/cvmfs/atlas-nightlies.cern.ch/repo/data/data-art/TrigP1Test/data16_cos.00306147.physics_Main.daq.RAW._lb0652._SFO-5._0001.data",
            "/cvmfs/atlas-nightlies.cern.ch/repo/data/data-art/TrigP1Test/data16_cos.00306147.physics_Main.daq.RAW._lb0652._SFO-6._0001.data"
	    ]
    },
    "data_ALFACalib": {
        "source": "data",
        "format": "BS",
        "paths": [
            "/cvmfs/atlas-nightlies.cern.ch/repo/data/data-art/TrigP1Test/data18_13TeV.00354863.calibration_ALFACalib.daq.RAW._lb0000._SFO-1._0018.data"
        ]
    },
    "data_lowmu": {
        "source":"data",
        "format":"BS",
        "paths": [
            "/cvmfs/atlas-nightlies.cern.ch/repo/data/data-art/TrigP1Test/data17_13TeV.00341615.physics_EnhancedBias.merge.RAW._lb0550._SFO-8._0001.1"
        ]
    },
    "ttbar": {
        "source": "mc",
        "format": "RDO",
        "paths": [
	    "/cvmfs/atlas-nightlies.cern.ch/repo/data/data-art/TriggerTest/valid1.410000.PowhegPythiaEvtGen_P2012_ttbar_hdamp172p5_nonallhad.digit.RDO.e4993_s3214_d1697_tid26494053_00/RDO.26494053._000001.pool.root.1",
	    "/cvmfs/atlas-nightlies.cern.ch/repo/data/data-art/TriggerTest/valid1.410000.PowhegPythiaEvtGen_P2012_ttbar_hdamp172p5_nonallhad.digit.RDO.e4993_s3214_d1697_tid26494053_00/RDO.26494053._000007.pool.root.1"
        ]
    },
    "pbpb": {
        "source": "mc",
        "format": "RDO",
        "paths": [            
            "/cvmfs/atlas-nightlies.cern.ch/repo/data/data-art/TriggerTest/valid1.420000.Hijing_PbPb_5p02TeV_MinBias_Flow_JJFV6.recon.RDO.e4962_a890_s3136_r12384_tid24120377_00/RDO.24120377._000001.pool.root.1",
	    "/cvmfs/atlas-nightlies.cern.ch/repo/data/data-art/TriggerTest/valid1.420000.Hijing_PbPb_5p02TeV_MinBias_Flow_JJFV6.recon.RDO.e4962_a890_s3136_r12384_tid24120377_00/RDO.24120377._000002.pool.root.1"
        ]
    },
    "ttbar_ID": {
        "source": "mc",
        "format": "RDO",
        "paths": [
            "/cvmfs/atlas-nightlies.cern.ch/repo/data/data-art/TrigInDetValidation/samples/valid1.410000.PowhegPythiaEvtGen_P2012_ttbar_hdamp172p5_nonallhad.digit.RDO.e4993_s3214_d1581/RDO.22537845._000016.pool.root.1",
            "/cvmfs/atlas-nightlies.cern.ch/repo/data/data-art/TrigInDetValidation/samples/valid1.410000.PowhegPythiaEvtGen_P2012_ttbar_hdamp172p5_nonallhad.digit.RDO.e4993_s3214_d1581/RDO.22537845._000054.pool.root.1",
            "/cvmfs/atlas-nightlies.cern.ch/repo/data/data-art/TrigInDetValidation/samples/valid1.410000.PowhegPythiaEvtGen_P2012_ttbar_hdamp172p5_nonallhad.digit.RDO.e4993_s3214_d1581/RDO.22537845._000059.pool.root.1",
            "/cvmfs/atlas-nightlies.cern.ch/repo/data/data-art/TrigInDetValidation/samples/valid1.410000.PowhegPythiaEvtGen_P2012_ttbar_hdamp172p5_nonallhad.digit.RDO.e4993_s3214_d1581/RDO.22537845._000072.pool.root.1",
            "/cvmfs/atlas-nightlies.cern.ch/repo/data/data-art/TrigInDetValidation/samples/valid1.410000.PowhegPythiaEvtGen_P2012_ttbar_hdamp172p5_nonallhad.digit.RDO.e4993_s3214_d1581/RDO.22537845._000087.pool.root.1",
            "/cvmfs/atlas-nightlies.cern.ch/repo/data/data-art/TrigInDetValidation/samples/valid1.410000.PowhegPythiaEvtGen_P2012_ttbar_hdamp172p5_nonallhad.digit.RDO.e4993_s3214_d1581/RDO.22537845._000114.pool.root.1",
            "/cvmfs/atlas-nightlies.cern.ch/repo/data/data-art/TrigInDetValidation/samples/valid1.410000.PowhegPythiaEvtGen_P2012_ttbar_hdamp172p5_nonallhad.digit.RDO.e4993_s3214_d1581/RDO.22537845._000135.pool.root.1",
            "/cvmfs/atlas-nightlies.cern.ch/repo/data/data-art/TrigInDetValidation/samples/valid1.410000.PowhegPythiaEvtGen_P2012_ttbar_hdamp172p5_nonallhad.digit.RDO.e4993_s3214_d1581/RDO.22537845._000145.pool.root.1"
        ]
    },
    "ttbar_pu80": {
        "source": "mc",
        "format": "RDO",
        "paths": [
            "/cvmfs/atlas-nightlies.cern.ch/repo/data/data-art/TrigInDetValidation/samples/mc15_13TeV.410000.PowhegPythiaEvtGen_P2012_ttbar_hdamp172p5_nonallhad.recon.RDO.e3698_s2608_s2183_r7195/RDO.06752780._000001.pool.root.1",
            "/cvmfs/atlas-nightlies.cern.ch/repo/data/data-art/TrigInDetValidation/samples/mc15_13TeV.410000.PowhegPythiaEvtGen_P2012_ttbar_hdamp172p5_nonallhad.recon.RDO.e3698_s2608_s2183_r7195/RDO.06752780._000002.pool.root.1",
            "/cvmfs/atlas-nightlies.cern.ch/repo/data/data-art/TrigInDetValidation/samples/mc15_13TeV.410000.PowhegPythiaEvtGen_P2012_ttbar_hdamp172p5_nonallhad.recon.RDO.e3698_s2608_s2183_r7195/RDO.06752780._000003.pool.root.1"
        ]
    },
    "ttbar_rel21": {
        "source": "mc",
        "format": "RDO",
        "paths": [
            "/cvmfs/atlas-nightlies.cern.ch/repo/data/data-art/TriggerTest/valid1.410000.PowhegPythiaEvtGen_P2012_ttbar_hdamp172p5_nonallhad.digit.RDO_FTK.e4993_s3214_r11234_d1505/RDO_FTK.17071950._000065.pool.root.1",
            "/cvmfs/atlas-nightlies.cern.ch/repo/data/data-art/TriggerTest/valid1.410000.PowhegPythiaEvtGen_P2012_ttbar_hdamp172p5_nonallhad.digit.RDO_FTK.e4993_s3214_r11234_d1505/RDO_FTK.17071950._000235.pool.root.1"
        ]
    },
    "bphysics": {
        "source": "mc",
        "format": "RDO",
        "paths": [
            "/cvmfs/atlas-nightlies.cern.ch/repo/data/data-art/TriggerTest/mc15_RTT_1000_Bphysics_toAOD_r6889/Bphysics_RDO_r6889_mixed.pool.root"
        ]
    },
    "mubphysics": {
        "source": "mc",
        "format": "RDO",
        "paths": [
            "/cvmfs/atlas-nightlies.cern.ch/repo/data/data-art/TriggerTest/mc15_13TeV.180593.Pythia8_AUMSTW2008LO_Wtaunu_3mu_noPhotos.recon.RDO.e3802_s2608_s2183_r6790/RDO.05594910._000008.pool.root.1"
        ]
    },
    "minbias": {
        "source": "mc",
        "format": "RDO",
        "paths": [
            "/cvmfs/atlas-nightlies.cern.ch/repo/data/data-art/TriggerTest/mc15_13TeV.361203.Pythia8_A2_MSTW2008LO_ND_minbias.recon.RDO.e3639_s2606_s2174_r7661_tid07858100_00/RDO.07858100._000087.pool.root.1"
        ]
    },
    "ttbar_HITS": {
        "source": "mc",
        "format": "HITS",
        "paths": [
            "/cvmfs/atlas-nightlies.cern.ch/repo/data/data-art/TrigAnalysisTest/valid1.410000.PowhegPythiaEvtGen_P2012_ttbar_hdamp172p5_nonallhad.simul.HITS.e4993_s3091_tid10504490_00/HITS.10504490._000001.pool.root.1"
        ]
    },
    "munsw": {
        "source": "mc",
        "format": "RDO",
        "paths": [
                "/cvmfs/atlas-nightlies.cern.ch/repo/data/data-art/TriggerTest/RDO_NSW_231121.root"
        ]
    },
    "pileup_low": {
        "source": "mc",
        "format": "HITS",
        "paths": [
            "/cvmfs/atlas-nightlies.cern.ch/repo/data/data-art/TrigAnalysisTest/mc16_13TeV.361238.Pythia8EvtGen_A3NNPDF23LO_minbias_inelastic_low.simul.HITS.e4981_s3087_s3111_tid10701323_00/HITS.10701323._000001.pool.root.1"
        ]
    },
    "pileup_high": {
        "source": "mc",
        "format": "HITS",
        "paths": [
            "/cvmfs/atlas-nightlies.cern.ch/repo/data/data-art/TrigAnalysisTest/mc16_13TeV.361239.Pythia8EvtGen_A3NNPDF23LO_minbias_inelastic_high.simul.HITS.e4981_s3087_s3111_tid10701335_00/HITS.10701335._000011.pool.root.1"
        ]
    },
    "mc_cosmics": {
        "source": "mc",
        "format": "RDO",
        "paths": [
            "/cvmfs/atlas-nightlies.cern.ch/repo/data/data-art/TriggerTest/mc16_13TeV.310772.CosmicRays_CollisionSetup.recon.RDO.s3513_s3519_r11737_tid20237005_00/RDO.20237005.merge250"
        ]
    },
    "Zmumu_pu40": {
        "source": "mc",
        "format": "RDO",
        "paths": [
            "/cvmfs/atlas-nightlies.cern.ch/repo/data/data-art/TrigInDetValidation/samples/mc15_13TeV.361107.PowhegPythia8EvtGen_AZNLOCTEQ6L1_Zmumu.recon.RDO.e3601_s2576_s2132_r7143/RDO.06718162._000013.pool.root.1"
        ]
    },
    "Single_mu_larged0": {
        "source": "mc",
        "format": "RDO",
        "paths": [
            "/cvmfs/atlas-nightlies.cern.ch/repo/data/data-art/TrigInDetValidation/samples/mc15_13TeV.107237.ParticleGenerator_mu_Pt4to100_vertxy20.recon.RDO.e3603_s2726_r7728/RDO.10240174._000001.pool.root.1"
        ]
    },
    "Single_mu_larged0_pu": {
        "source": "mc",
        "format": "RDO",
        "paths": [
            "/cvmfs/atlas-nightlies.cern.ch/repo/data/data-art/TrigInDetValidation/samples/mc15_13TeV.107237.ParticleGenerator_mu_Pt4to100_vertxy20.recon.RDO.e3603_s2726_r7772/RDO.09945423._000001.pool.root.1"
        ]
    },
    "Bphys_JpsiPhi": {
        "source": "mc",
        "format": "RDO",
        "paths": [
            "/cvmfs/atlas-nightlies.cern.ch/repo/data/data-art/TrigInDetValidation/samples/mc15_13TeV.300401.Pythia8BPhotospp_A14_CTEQ6L1_Bs_Jpsimu3p5mu3p5_phi.recon.RDO.e4397_s2608_r6869/RDO.06461186._000001.pool.root.1",            	    
            "/cvmfs/atlas-nightlies.cern.ch/repo/data/data-art/TrigInDetValidation/samples/mc15_13TeV.300401.Pythia8BPhotospp_A14_CTEQ6L1_Bs_Jpsimu3p5mu3p5_phi.recon.RDO.e4397_s2608_r6869/RDO.06461186._000002.pool.root.1",            	    
            "/cvmfs/atlas-nightlies.cern.ch/repo/data/data-art/TrigInDetValidation/samples/mc15_13TeV.300401.Pythia8BPhotospp_A14_CTEQ6L1_Bs_Jpsimu3p5mu3p5_phi.recon.RDO.e4397_s2608_r6869/RDO.06461186._000003.pool.root.1"
	]	
    },
    "Zee_pu40": {
        "source": "mc",
        "format": "RDO",
        "paths": [
            "/cvmfs/atlas-nightlies.cern.ch/repo/data/data-art/TrigInDetValidation/samples/mc15_13TeV.361106.PowhegPythia8EvtGen_AZNLOCTEQ6L1_Zee.recon.RDO.e3601_s2665_s2183_r7191/RDO.06753544._000001.pool.root.1"
        ]
    },
    "Jpsiee_pu40": {
        "source": "mc",
        "format": "RDO",
        "paths": [
            "/cvmfs/atlas-nightlies.cern.ch/repo/data/data-art/TrigInDetValidation/samples/mc15_13TeV.129190.Pythia8_AU2CTEQ6L1_ppToJpsie3e3.recon.RDO.e3802_s2608_s2183_r7042/RDO.06758877._000006.pool.root.1"
        ]
    },
    "Single_el": {
        "source": "mc",
        "format": "RDO",
        "paths": [
            "/cvmfs/atlas-nightlies.cern.ch/repo/data/data-art/TrigInDetValidation/samples/mc15_13TeV.159010.ParticleGenerator_e_Et7to80.recon.RDO.e1948_s2726_r7728/RDO.10240159._000001.pool.root.1"
        ]
    },
    "Single_el_pu40": {
        "source": "mc",
        "format": "RDO",
        "paths": [
            "/cvmfs/atlas-nightlies.cern.ch/repo/data/data-art/TrigInDetValidation/samples/mc15_13TeV.159010.ParticleGenerator_e_Et7to80.recon.RDO.e1948_s2726_r7772/RDO.09929877._000001.pool.root.1"
        ]
    },
    "Single_el_larged0": {
        "source": "mc",
        "format": "RDO",
        "paths": [
            "/cvmfs/atlas-nightlies.cern.ch/repo/data/data-art/TrigInDetValidation/samples/mc15_13TeV.159053.ParticleGenerator_e_Et7to80_vertxy20.recon.RDO.e3603_s2726_r7728/RDO.10240167._000001.pool.root.1"
        ]
    },
    "Single_el_larged0_pu40": {
        "source": "mc",
        "format": "RDO",
        "paths": [
            "/cvmfs/atlas-nightlies.cern.ch/repo/data/data-art/TrigInDetValidation/samples/mc15_13TeV.159053.ParticleGenerator_e_Et7to80_vertxy20.recon.RDO.e3603_s2726_r7772/RDO.09945414._000001.pool.root.1"
        ]
    },
    "Ztautau_pu46": {
        "source": "mc",
        "format": "RDO",
        "paths": [
            "/cvmfs/atlas-nightlies.cern.ch/repo/data/data-art/TrigInDetValidation/samples/mc16_13TeV.361108.PowhegPythia8EvtGen_AZNLOCTEQ6L1_Ztautau.recon.RDO.e3601_s3126_r9546/RDO.11373415._000001.pool.root.1",
            "/cvmfs/atlas-nightlies.cern.ch/repo/data/data-art/TrigInDetValidation/samples/mc16_13TeV.361108.PowhegPythia8EvtGen_AZNLOCTEQ6L1_Ztautau.recon.RDO.e3601_s3126_r9546/RDO.11373415._000002.pool.root.1",
            "/cvmfs/atlas-nightlies.cern.ch/repo/data/data-art/TrigInDetValidation/samples/mc16_13TeV.361108.PowhegPythia8EvtGen_AZNLOCTEQ6L1_Ztautau.recon.RDO.e3601_s3126_r9546/RDO.11373415._000003.pool.root.1"
        ]
    },
    "StauStau": {
        "source": "mc",
        "format": "RDO",
        "paths": [
            "/cvmfs/atlas-nightlies.cern.ch/repo/data/data-art/TrigInDetValidation/samples/mc16_13TeV.399007.MGPy8EG_A14NNPDF23LO_StauStau_directLLP_100_0_1ns.recon.RDO.e7067_e5984_s3380_r11944/RDO.21902592._000001.pool.root.1",
	    "/cvmfs/atlas-nightlies.cern.ch/repo/data/data-art/TrigInDetValidation/samples/mc16_13TeV.399007.MGPy8EG_A14NNPDF23LO_StauStau_directLLP_100_0_1ns.recon.RDO.e7067_e5984_s3380_r11944/RDO.21902592._000002.pool.root.1",
	    "/cvmfs/atlas-nightlies.cern.ch/repo/data/data-art/TrigInDetValidation/samples/mc16_13TeV.399007.MGPy8EG_A14NNPDF23LO_StauStau_directLLP_100_0_1ns.recon.RDO.e7067_e5984_s3380_r11944/RDO.21902592._000003.pool.root.1",
	    "/cvmfs/atlas-nightlies.cern.ch/repo/data/data-art/TrigInDetValidation/samples/mc16_13TeV.399007.MGPy8EG_A14NNPDF23LO_StauStau_directLLP_100_0_1ns.recon.RDO.e7067_e5984_s3380_r11944/RDO.21902592._000004.pool.root.1",
	    "/cvmfs/atlas-nightlies.cern.ch/repo/data/data-art/TrigInDetValidation/samples/mc16_13TeV.399007.MGPy8EG_A14NNPDF23LO_StauStau_directLLP_100_0_1ns.recon.RDO.e7067_e5984_s3380_r11944/RDO.21902592._000005.pool.root.1",
	    "/cvmfs/atlas-nightlies.cern.ch/repo/data/data-art/TrigInDetValidation/samples/mc16_13TeV.399007.MGPy8EG_A14NNPDF23LO_StauStau_directLLP_100_0_1ns.recon.RDO.e7067_e5984_s3380_r11944/RDO.21902592._000006.pool.root.1",
	    "/cvmfs/atlas-nightlies.cern.ch/repo/data/data-art/TrigInDetValidation/samples/mc16_13TeV.399007.MGPy8EG_A14NNPDF23LO_StauStau_directLLP_100_0_1ns.recon.RDO.e7067_e5984_s3380_r11944/RDO.21902592._000007.pool.root.1",
	    "/cvmfs/atlas-nightlies.cern.ch/repo/data/data-art/TrigInDetValidation/samples/mc16_13TeV.399007.MGPy8EG_A14NNPDF23LO_StauStau_directLLP_100_0_1ns.recon.RDO.e7067_e5984_s3380_r11944/RDO.21902592._000008.pool.root.1",
	    "/cvmfs/atlas-nightlies.cern.ch/repo/data/data-art/TrigInDetValidation/samples/mc16_13TeV.399007.MGPy8EG_A14NNPDF23LO_StauStau_directLLP_100_0_1ns.recon.RDO.e7067_e5984_s3380_r11944/RDO.21902592._000009.pool.root.1",
	    "/cvmfs/atlas-nightlies.cern.ch/repo/data/data-art/TrigInDetValidation/samples/mc16_13TeV.399007.MGPy8EG_A14NNPDF23LO_StauStau_directLLP_100_0_1ns.recon.RDO.e7067_e5984_s3380_r11944/RDO.21902592._000010.pool.root.1"
        ]
    },
    "RHadron": {
        "source": "mc",
        "format": "RDO",
        "paths": [
            "/cvmfs/atlas-nightlies.cern.ch/repo/data/data-art/TrigInDetValidation/samples/mc16_13TeV.448024.MGPy8EG_A14NNPDF23LO_TT_RPVdirectBL_1200_tau_1ns.recon.RDO.e6768_s3338_r11265_tid19016862_00/RDO.19016862._000002.pool.root.1",
            "/cvmfs/atlas-nightlies.cern.ch/repo/data/data-art/TrigInDetValidation/samples/mc16_13TeV.448024.MGPy8EG_A14NNPDF23LO_TT_RPVdirectBL_1200_tau_1ns.recon.RDO.e6768_s3338_r11265_tid19016862_00/RDO.19016862._000003.pool.root.1",
            "/cvmfs/atlas-nightlies.cern.ch/repo/data/data-art/TrigInDetValidation/samples/mc16_13TeV.448024.MGPy8EG_A14NNPDF23LO_TT_RPVdirectBL_1200_tau_1ns.recon.RDO.e6768_s3338_r11265_tid19016862_00/RDO.19016862._000004.pool.root.1",
            "/cvmfs/atlas-nightlies.cern.ch/repo/data/data-art/TrigInDetValidation/samples/mc16_13TeV.448024.MGPy8EG_A14NNPDF23LO_TT_RPVdirectBL_1200_tau_1ns.recon.RDO.e6768_s3338_r11265_tid19016862_00/RDO.19016862._000006.pool.root.1",
            "/cvmfs/atlas-nightlies.cern.ch/repo/data/data-art/TrigInDetValidation/samples/mc16_13TeV.448024.MGPy8EG_A14NNPDF23LO_TT_RPVdirectBL_1200_tau_1ns.recon.RDO.e6768_s3338_r11265_tid19016862_00/RDO.19016862._000007.pool.root.1"
        ]
    },
    "data_run2_reco_run3_AOD": {
        "source": "data",
        "format": "AOD",
        "paths": [
            "/cvmfs/atlas-nightlies.cern.ch/repo/data/data-art/Tier0ChainTests/data18_13TeV.00357772.physics_Main.recon.AOD.r13286/AOD.27654050._000557.pool.root.1"
        ] 
    }
}
